{
  "project_info": {
    "project_number": "824093370111",
    "firebase_url": "https://taxi-sitio-pasajero.firebaseio.com",
    "project_id": "taxi-sitio-pasajero",
    "storage_bucket": "taxi-sitio-pasajero.appspot.com"
  },
  "client": [
    {
      "client_info": {
        "mobilesdk_app_id": "1:824093370111:android:a1f8e78468db32a6",
        "android_client_info": {
          "package_name": "com.taxisitio.driver2"
        }
      },
      "oauth_client": [
        {
          "client_id": "824093370111-777i7rbm3uhvrv6j6h747eb96u2rbsgh.apps.googleusercontent.com",
          "client_type": 3
        }
      ],
      "api_key": [
        {
          "current_key": "AIzaSyBBtlVB_w4kesLvV6Ecqu-v4nbmXBsilQ0"
        }
      ],
      "services": {
        "appinvite_service": {
          "other_platform_oauth_client": [
            {
              "client_id": "824093370111-777i7rbm3uhvrv6j6h747eb96u2rbsgh.apps.googleusercontent.com",
              "client_type": 3
            }
          ]
        }
      }
    },
    {
      "client_info": {
        "mobilesdk_app_id": "1:824093370111:android:9b0465de6b1ad764",
        "android_client_info": {
          "package_name": "com.taxisitio.passenger2"
        }
      },
      "oauth_client": [
        {
          "client_id": "824093370111-777i7rbm3uhvrv6j6h747eb96u2rbsgh.apps.googleusercontent.com",
          "client_type": 3
        }
      ],
      "api_key": [
        {
          "current_key": "AIzaSyBBtlVB_w4kesLvV6Ecqu-v4nbmXBsilQ0"
        }
      ],
      "services": {
        "appinvite_service": {
          "other_platform_oauth_client": [
            {
              "client_id": "824093370111-777i7rbm3uhvrv6j6h747eb96u2rbsgh.apps.googleusercontent.com",
              "client_type": 3
            }
          ]
        }
      }
    }
  ],
  "configuration_version": "1"
}
